-------------------------------------------------------------------------------
Test set: com.backend.ApiRest.StarShipRepositoryTest
-------------------------------------------------------------------------------
Tests run: 6, Failures: 0, Errors: 0, Skipped: 0, Time elapsed: 0.069 s - in com.backend.ApiRest.StarShipRepositoryTest
