-------------------------------------------------------------------------------
Test set: com.backend.ApiRest.PlanetRepositoryTest
-------------------------------------------------------------------------------
Tests run: 6, Failures: 0, Errors: 0, Skipped: 0, Time elapsed: 6.276 s - in com.backend.ApiRest.PlanetRepositoryTest
